{
  "disabled": false,
  "bindings": [
    {
      "authLevel": "anonymous",
      "type": "httpTrigger",
      "direction": "in",
      "name": "req",
      "methods": [
        "post"
      ],
      "route": "mail/invite"
    },
    {
      "type": "http",
      "direction": "out",
      "name": "res"
    }
  ]
}
