
<svg width="17px" height="22px" viewBox="0 0 17 22" version="1.1" xmlns="http://www.w3.org/2000/svg" xmlns:xlink="http://www.w3.org/1999/xlink">
    <g id="Page-1" stroke="none" stroke-width="1" fill="none" fill-rule="evenodd">
        <path d="M8.5,22 C13.5,15.8849624 16,11.4247549 16,8.61937757 C16,4.41131154 12.6421356,1 8.5,1 C4.35786438,1 1,4.41131154 1,8.61937757 C1,11.4247549 3.5,15.8849624 8.5,22 Z" id="Oval-Copy" stroke="#5297FD" fill="#EFEFEF"></path>
        <circle id="Oval" stroke="#4A90E2" fill-opacity="0.4" fill="#4A90E2" cx="8.5" cy="8.5" r="2.5"></circle>
    </g>
</svg>